[{"name":"Solarbreeze","api_username":"bd563fa034c891a446240b74cc713e96e730d506f38582824eb0bd2406a7650d","state":"Cornier","action":"37-95"},
{"name":"Greenlam","api_username":"939e22d3d629d4635713138053f02b78576fff967abddebd3a02adc3a23ae999","state":"Franckton","action":"59-99"},
{"name":"Zamit","api_username":"aab62e4653d84b604481f0369f584d401e3650cdb795b1d8552485443003b442","state":"Lavell","action":"91-80"},
{"name":"Cookley","api_username":"c5f9bbc6dd43dcb2b5e4bd33e0220129194c06631b7dcbc9bb5134d330d69f53","state":"Rusling","action":"41-50"},
{"name":"Zaam-Dox","api_username":"4421021e6d061233ad1ac83be4a43967ac5a8df94f90be22ac1298bfba597f98","state":"Udey","action":"14-91"},
{"name":"Tresom","api_username":"1a1d10a5c3d34ee1b336d69a76301984333d40ec69f1b60e2cde58a122c58858","state":"Panting","action":"58-30"},
{"name":"Sonair","api_username":"027b7f4e9f998c3ea46d72bfc8adf3708a47053cb48fcea8bc0e48388724cb66","state":"Sygroves","action":"81-96"},
{"name":"Namfix","api_username":"6527509e21049cb7bcd958f913df279fabf794732157419fa92c945ea362dab3","state":"Hustings","action":"16-49"},
{"name":"Zathin","api_username":"08947336d1aed9125b301c135d773ae9907cd07922e5d3e42a2307196a7da86d","state":"Oxford","action":"43-22"},
{"name":"Home Ing","api_username":"0a45c024da803a5681e63e725f3f274164f3191c86ac1c6f4eed93077cee007d","state":"Sweetmore","action":"87-75"},
{"name":"Tres-Zap","api_username":"352b30b146bc556172d5daeebced1321da3f09344915f8cdbb7dc8b298c3381a","state":"Eltone","action":"21-22"},
{"name":"Tempsoft","api_username":"16f6aae1e3714c3d85c0724c340545eb62f38069679dc68ef399d31571b19e8e","state":"D'Acth","action":"57-22"},
{"name":"Latlux","api_username":"248377f85d2d45e527b6d666a3799d0d59f62e66c61d87484d6ce76484f11875","state":"Vynarde","action":"56-97"},
{"name":"Home Ing","api_username":"8ea15feebb20f335ff8a4e4145f04d7174371fa3a227ce2beec4c68c7dc0f057","state":"Mucklo","action":"56-09"},
{"name":"Fixflex","api_username":"033bde941678905e123e10b55a3cf5ba98ec98b04442f38d9c001d9f1807fd14","state":"Stollenhof","action":"61-53"},
{"name":"Greenlam","api_username":"840039b4e2aa9f9f82d8a006edc93ff3dfd3a294d9fdcf07a67dca3333ae8847","state":"Warcop","action":"72-05"},
{"name":"Daltfresh","api_username":"4b6ff59e0371d650d839ca063028364292d292eaf0d8f4477319f10a024d14a8","state":"Piell","action":"13-71"},
{"name":"Zoolab","api_username":"5b05401b45802ccb581389dbe8cb047cea5f8f730896b5fbdc21207b83085748","state":"Dobson","action":"27-37"},
{"name":"Bitchip","api_username":"f8c79cba5c889ee836eb4df50e67d66cc19f271cc5272112bfcb554188cd49c1","state":"Bedbrough","action":"28-56"},
{"name":"Pannier","api_username":"2695d1557f8896aa80197e1c133348b874267eae11701b3d98b5b399394f2519","state":"Creany","action":"34-50"},
{"name":"Sonsing","api_username":"f913564748ceb1b71e2f5b04af1e64707fd2a0ed1cd54728fd384249d2b9d8d0","state":"Enden","action":"91-66"},
{"name":"Keylex","api_username":"7295ae951e4921393fa4698429bde0bd19bdb460cc1f4af792960847ed026327","state":"Stickings","action":"16-27"},
{"name":"Bamity","api_username":"1ccfad217319b23f3eb23569ebc3cfb7b54ce9b444e6a8ec76482ece9dee532e","state":"Boulstridge","action":"11-09"},
{"name":"Alpha","api_username":"81d9a377ed4f7b88380e3c59ac8763ce304a46a361ab7cf0e8f1fcdaaca6af11","state":"Mcettrick","action":"00-91"},
{"name":"Rank","api_username":"642f9dae965c0bc58ea5ff7640da7a07511457790e354119184ea35520a27701","state":"Wardhough","action":"22-41"},
{"name":"Asoka","api_username":"cdce726233ae9a281b0766ea0a04ad31b42738754b7912b5eb951022353b4381","state":"McElory","action":"81-91"},
{"name":"Otcom","api_username":"ca544984dc68e9800af8c9c40ffcf2310cd8d997a96ab30473be3374107f9136","state":"Roylance","action":"89-71"},
{"name":"Overhold","api_username":"00420d3505d1dc1b092ccf757117ea56c58127be2ef0931b263645f0018b9a41","state":"Tootin","action":"36-96"},
{"name":"Asoka","api_username":"b09274a537d0186df97d047065f66308f08f9642ab3b6cae8cbfbe0a97b65b4c","state":"Heephy","action":"29-77"},
{"name":"Ventosanzap","api_username":"37c9d629b87d95b4c7772f1e11b7c39b5a0934c62b35e4bcb49f0eeac390719d","state":"Kayser","action":"78-84"},
{"name":"Asoka","api_username":"331389624c5797eac401f433814f48bf1a653ec06527303ad824d14f8105b266","state":"Garrie","action":"62-34"},
{"name":"Tampflex","api_username":"d71822718c49a5a264392b4c60438dc1a566b3c0d36890012ea601a38f05d7e2","state":"Schuchmacher","action":"29-96"},
{"name":"Regrant","api_username":"0cd4bf8a1ba0fd0686cddc49bbc70404d25bdc5a04fb3e2f45e283984fc20003","state":"Drews","action":"76-96"},
{"name":"Viva","api_username":"8ad2dda92fef8fb208f05d114fe4c4f6756f9f7f187c5a3385e73e8e0fecb5d3","state":"Carlos","action":"16-87"},
{"name":"Stronghold","api_username":"3f59228f32783f24177c90f7ba5f55cc7049b59da61d91f39f92dead767248bd","state":"Lanon","action":"94-18"},
{"name":"Y-find","api_username":"619adfbe48fcb1df0293e845bd9c047abf005c65479a5fed5b7ba28e1d66fde4","state":"Meron","action":"52-37"},
{"name":"Zontrax","api_username":"f7fe2a2708e7357d48f12b71ccaadb483a190459585e38e891e476b43501218e","state":"Cleft","action":"67-91"},
{"name":"Job","api_username":"b70c76fa2885ef8e8a225bdaaa35b5e906a69ec8bfb8d5fdaf0656bfbb8c7d6a","state":"Durn","action":"00-88"},
{"name":"Overhold","api_username":"6a9c5fbd02e38cb39b9dac8e3c6f1f9c9945837d162aab8f98d355017e21b03f","state":"Jendrach","action":"74-87"},
{"name":"Viva","api_username":"22eea86a41de077df21699ea1ca66daf5ee411aacc5935f4b70f61c6c5180485","state":"Brimble","action":"61-97"},
{"name":"Cardguard","api_username":"e25dd13bb4118a56d58468cf16a8a198aef69d74fe95c4d067e794455d72e273","state":"Kettlewell","action":"58-70"},
{"name":"Domainer","api_username":"57f03e5e3fac336933e8539d9617ebb9d6035ac5525c5107497d1d8b13747e37","state":"Sinson","action":"69-41"},
{"name":"Quo Lux","api_username":"ed6a7a4c7355c1da9833c9882c1265ac241fd50ffb5cef3ca9ab1d0417a072f1","state":"Bartels-Ellis","action":"58-81"},
{"name":"Wrapsafe","api_username":"6cf6a42a0c897b4fc9a116d8fa10febb080d8ac5e5f868e3da8da1dcbcfa271e","state":"Miche","action":"37-12"},
{"name":"Hatity","api_username":"525d6f4d2dac4c225c4688b735533306ecc05a64ecb270a7d5ebc87bcbf0ed34","state":"McKane","action":"62-55"},
{"name":"Rank","api_username":"96ddb450efc25b70ebb191bbd3a91bb711e04a6fd203be375682ed8262211164","state":"Echelle","action":"56-22"},
{"name":"Overhold","api_username":"951c6cc23d4cc2ff402f7e713fd35747bc863ed818afa52212cd9a8e58db2fa2","state":"MacBey","action":"44-64"},
{"name":"Span","api_username":"16de2cb80bfab1117a5b40b3000c00226ac94ad6373cac282975d4590f39afe5","state":"Patry","action":"75-61"},
{"name":"Span","api_username":"4b926781663021b7c57edac13e1b477bf9e7d0e0c6863673b8ab9c8644873c28","state":"Johl","action":"15-65"},
{"name":"Treeflex","api_username":"e0fc5b8ac8b9453819a78ea68661f762c248f68f7c7efb2ae42e38a43ccee60d","state":"Chmarny","action":"17-16"},
{"name":"Trippledex","api_username":"788c02247e25c1888c48103a47be45f937a2236a8ec4bd693af6e0aea43b4b9d","state":"Gowenlock","action":"02-32"},
{"name":"Lotstring","api_username":"ed61f4c705a1e13cf6405a5858725043f4cbbd39b85b79f6f6e8473da12eb776","state":"Willeson","action":"17-28"},
{"name":"Zathin","api_username":"26ea91ee9ef2074050b92906b3c83c19a41ad90a5f3c186f20d79dcda74c581b","state":"Arnson","action":"41-45"},
{"name":"Y-find","api_username":"eaa3f927aa3204636637c004d50e1973e389a98bcd86f3ab220a58e56445aef6","state":"Garrat","action":"79-94"},
{"name":"Otcom","api_username":"e8f8999de90eeea7e4bd5ab71d62f26fff3f8d583372a977b9b546e1ea05b8b3","state":"Petchell","action":"24-94"},
{"name":"Stronghold","api_username":"c8930c9b1a46015ecb0ab0679577350f79940315842c96e159c7b5d34a9c37f2","state":"Gilberthorpe","action":"91-34"},
{"name":"Tempsoft","api_username":"9b93506d4868d15fded7ec19dffe888e4010fbef9cbd31e2c1134e86bb9ef61a","state":"Tubb","action":"10-77"},
{"name":"Ronstring","api_username":"f28d0f9f58f1281ea3336fe34554188aae60d2bf497eeb3c45826239243dc459","state":"De Domenico","action":"03-37"},
{"name":"Stim","api_username":"05bcdd0b8e2a6c6b6fa47af9add696240e6c7ccb7d635e540ac4c470ca7716c5","state":"Crew","action":"17-82"},
{"name":"Sub-Ex","api_username":"7417150851499b54c8d2e40e863125f99cbcb26661f97c5180d4e4b22dfc447c","state":"Cundict","action":"32-37"},
{"name":"It","api_username":"4454c830dc79b37c5276a7724c589866d863adef829d4f8e011c6f2e356d8b7c","state":"Grelik","action":"73-31"},
{"name":"Konklux","api_username":"4a2a086e597f31dba32e2ccc95f50911b35608205f874c61ee07ecaff75d4230","state":"Dolligon","action":"71-37"},
{"name":"Biodex","api_username":"0a4f7c7100fd8f1f2860a77c8077594736c8ff6e32479025ed03f54bedffbe80","state":"Tilmouth","action":"18-66"},
{"name":"Greenlam","api_username":"b264a2957c8ad6d002f4092de3a7e7a311484469f0afc4201b3b33b3858e4e4a","state":"Dagleas","action":"17-35"},
{"name":"Andalax","api_username":"14ffdb156c2d0e771583f50657a80f9eb75b42763c7708229b00e5ca425ca2bb","state":"Kuller","action":"30-66"},
{"name":"Cookley","api_username":"38537d0f1581ed497350912418de0c42edee45c228032c41f6e675b146e69a71","state":"Aspinal","action":"90-88"},
{"name":"Stim","api_username":"d8a7a0248c2511aae83262044d4ff36a9d70e40f0abfeccf6cd37e0fbd032fe2","state":"Cortez","action":"66-98"},
{"name":"Holdlamis","api_username":"89e4adec08f630ea3220c96b5b85d8fcd91eea0673f1d8944c145427040e98c1","state":"Whellams","action":"77-22"},
{"name":"Rank","api_username":"01c79ff410b41d6831215afa343c00a9ef9a854cee40e808b3f06491085145a2","state":"Ceely","action":"68-95"},
{"name":"Keylex","api_username":"d02e44ddfecb69f1a708624bde4431b547d0e0c5cba6ca0d2c1f6fe8147b64c7","state":"Sellors","action":"90-09"},
{"name":"Cookley","api_username":"644a30266678135cb9505b01900c5c74f3cf1da2dd9518e9dbd30607ab91d321","state":"Courage","action":"62-63"},
{"name":"Redhold","api_username":"261507479546511a7014e737e337c47e613c4a7a917a8adb3e30190bdc7df0c3","state":"Niche","action":"64-76"},
{"name":"Voltsillam","api_username":"78cf5e783b1a6a5a9072af049288dad7440854208264d588fbb5109913f69ba0","state":"Satterly","action":"85-89"},
{"name":"Stim","api_username":"7a5132217d648a78c405a4ae9111a973a7bc0114df2c83f2c03b2c867f790748","state":"Phettiplace","action":"21-30"},
{"name":"Greenlam","api_username":"c244082bebc841d39ce5e97e2745e594dc9b0c8f3b55732ddf5581a340ab421b","state":"Sexton","action":"05-36"},
{"name":"Ventosanzap","api_username":"8d8c9e8e54bfb84e0e983fb471d806c0ea54db6d6d0ba3fa751c23420f08c233","state":"Smithe","action":"38-22"},
{"name":"Alpha","api_username":"5a1351ffe241c3045ed9bf56b19970f6086bc44d7f90850697d4131182697c8b","state":"Heading","action":"90-70"},
{"name":"Job","api_username":"79274451c17576942103d1bf8b03fe818efda6ecc0ca28461c44b8153b2122e3","state":"Lamport","action":"54-66"},
{"name":"Ronstring","api_username":"a4a18a95bb30f9af61eb265186dd1eb8f452fc4eaf49fbaa25cb9693710ce4d5","state":"Perritt","action":"59-01"},
{"name":"Andalax","api_username":"c271ef8bd56465b4365aecc047e4c6c195305bfea1c1fcb942f8cfcb4cd41027","state":"Errigo","action":"45-06"},
{"name":"Span","api_username":"1fb2fbd2faef8a79e12472ade391dc3612be8ad499af88097dabfa31772da656","state":"Hargreave","action":"16-58"},
{"name":"Temp","api_username":"dbb7f01c33ab48e0c6ceae18e9a1b97f0f5bf1733c0ce5395a8fe18a3e3ab1dc","state":"Goodwill","action":"27-13"},
{"name":"Job","api_username":"a14bdf85c37fef4053c900069e81fe6146b209e4fcfeba29f81203b88e7f3d28","state":"Geck","action":"19-50"},
{"name":"Hatity","api_username":"70da0742ce0edbe60ab621670a6b46105b331526ea5d5a3399647c5a9faa11a2","state":"Jenson","action":"78-60"},
{"name":"Sonair","api_username":"dcaccda7ab5557d56ac4028598900cd1883fba66c74b8bf0c3a9b0d00fcbd0b8","state":"Josefsen","action":"90-87"},
{"name":"Mat Lam Tam","api_username":"cb564d0d18a75bc96ed48ead861134a9280e5fe5adfbfb510616edb89bb083b8","state":"Christy","action":"99-80"},
{"name":"Job","api_username":"f97fe5f8e1cabc75c905a25592f6e701832c3d6d4894aa57a380237603efdc35","state":"Keefe","action":"13-41"},
{"name":"Mat Lam Tam","api_username":"0752f6aa0bcc1b65f45ecee58656d1498975ef72ae187af0967aebd5486122f9","state":"Karpov","action":"90-32"},
{"name":"Tresom","api_username":"d4ee31449a1a1938d353573939cc5a0afd9d60b33c6eff1e14aedf4782b90be8","state":"Rigney","action":"40-02"},
{"name":"Transcof","api_username":"bedca8a58d94fa2853a8553f9de9a7f48273ea8d91ba8480592edba38975eef0","state":"Blondelle","action":"03-51"},
{"name":"Y-Solowarm","api_username":"505abebe584e2e4f53ba67ceaafc2ca90fdd74c010bc59e926cc710e5d99635a","state":"Littler","action":"00-76"},
{"name":"Kanlam","api_username":"3885d24cbb54672a51e06336957e379be235e0f8b7e2b11ba99c8acbe3ff88d4","state":"McDavitt","action":"06-96"},
{"name":"Flexidy","api_username":"3f1ab9a754a728b2b2aeb2aad66c9e1dbae905490bbfcb7c31be26f724aae004","state":"Brogini","action":"27-73"},
{"name":"Zathin","api_username":"9b16b3121337efa6bfa424440a35c86a12005bb9f499c181406caac2b165646c","state":"Kimmins","action":"56-93"},
{"name":"Domainer","api_username":"d777c709f211ea0a15e10246abd9a761a4cb377d8e28964fc3ef86dc2f2c116f","state":"Ickeringill","action":"72-02"},
{"name":"Pannier","api_username":"aa55aafbe9c121b30a9c2a71b2b343aec0a0388190caee43f17b78d7ff6749f8","state":"Marunchak","action":"99-83"},
{"name":"Mat Lam Tam","api_username":"fd4fc328c6e931122fd94bbac9e43bdda558d97d1bb612e04becb6bf8b7646bf","state":"Swinnerton","action":"52-58"},
{"name":"Sub-Ex","api_username":"e900d9397069d387c0feb5866dd9fdc43d59ae312ea212fd102f2a32842d0927","state":"McDougall","action":"72-10"},
{"name":"Gembucket","api_username":"8cb67192ec0bc0304359f7553c8c7821d45dfa26ba1bb32245dd561cf2b5f65e","state":"Liddiard","action":"49-95"},
{"name":"Bytecard","api_username":"84df9fed60987a01470277782cff8224192caefe6e66b4597b89691e35d2dae6","state":"Litel","action":"79-09"},
{"name":"Biodex","api_username":"a7eb8d682d125693545949a4a35a3cb04196c32b59150548ef9dfe52338e9851","state":"MacNeil","action":"71-33"},
{"name":"Tresom","api_username":"4ab66eb1446b0ab81f314cfc71d219e79d7b028257bc675b6fa6d8e8168415c5","state":"O'Loinn","action":"48-13"},
{"name":"Tampflex","api_username":"3c584de57ef64452cd3fcd17ce22d56d31a40e18342eaa8e23e9212cf3211009","state":"Petrasso","action":"38-25"},
{"name":"Pannier","api_username":"7cb70f59da8fcf5c213a9bacead9b505d38dad497c3ea99545a13eef99dffb1a","state":"Shears","action":"26-21"},
{"name":"Voyatouch","api_username":"5421d19bb64febd34a1c2a4edbb4d841192c2758cce720c2808d63457847bebf","state":"Oriel","action":"44-22"},
{"name":"Solarbreeze","api_username":"3006dd15ad6e6825882d6d72d9d9d36b2745ab221f96abac272844ad4c5bd5cc","state":"Hayles","action":"56-33"},
{"name":"Transcof","api_username":"e15bbc60c88b76bb85e16819205499ddb2eef2f545c21466472581efdccc6eb6","state":"Rubert","action":"29-18"},
{"name":"Temp","api_username":"e8029ab268804a3fe07f185357f7660ca3b9db5c810f77662e9b76546b6faa3e","state":"Adshad","action":"67-01"},
{"name":"Bigtax","api_username":"85e21093c8e36e1a5ef94a58a624b50a1e718136f082a52dadd68a059a809821","state":"Bassindale","action":"43-84"},
{"name":"Fintone","api_username":"457186afe71d50bf606900cd3c43cea53239372a8656b4684e07b30ec209fc10","state":"Dibdin","action":"59-67"}]

https://api.myjson.com/bins/1h6pws